13
Ag Cu	#E= -30.691166 sign_555= 0.285714 sign_422= 0.000000
Ag	-15.852385	-15.347845	-12.454511
Ag	-13.330746	-16.293649	-13.301365
Ag	-16.069150	-16.113145	-16.952763
Ag	-16.468289	-13.352315	-16.517108
Ag	-15.688699	-17.346310	-14.441793
Ag	-16.334316	-12.879719	-13.736871
Ag	-12.253745	-14.409510	-15.107311
Ag	-17.544944	-15.236597	-14.711517
Ag	-14.899240	-14.823224	-14.909242
Ag	-14.109986	-12.299304	-15.376182
Ag	-13.464916	-16.766333	-16.081313
Ag	-13.946482	-14.297552	-17.363960
Ag	-13.729184	-13.533119	-12.865496
